Descriptive analysis
…
tidy_df %>%
  filter(!str_detect(word, "^@")) %>%
  count(word, is_bot) %>%
  group_by(word) %>%
  filter(sum(n) >= 10) %>%
  ungroup() %>%
  spread(is_bot, n, fill = 0) %>%
  mutate_if(is.numeric, list(~ (. + 1) / (sum(.) + 1))) %>%
  mutate(logratio = log(`No Bot` / Bot)) %>%
  arrange(desc(logratio)) -> word_ratios

word_ratios %>%
  arrange(abs(logratio))

## # A tibble: 29,640 x 5
##    word                           Bot   `No Bot`    Unknown  logratio
##    <chr>                        <dbl>      <dbl>      <dbl>     <dbl>
##  1 ready                   0.000321   0.000321   0.000335    0.000679
##  2 speed                   0.000107   0.000107   0.000115   -0.000828
##  3 quarantined             0.000169   0.000169   0.000211    0.000838
##  4 jumps                   0.0000445  0.0000444  0.0000429  -0.00173 
##  5 wilson                  0.0000356  0.0000355  0.0000455  -0.00309 
##  6 #billgates              0.00000890 0.00000894 0.0000175   0.00369 
##  7 #bucs                   0.00000890 0.00000894 0.00000438  0.00369 
##  8 #chinaliedandpeopledied 0.00000890 0.00000894 0.0000166   0.00369 
##  9 #climate                0.00000890 0.00000894 0.00000701  0.00369 
## 10 #cvid19                 0.00000890 0.00000894 0.00000788  0.00369 
## #  with 29,630 more rows
…
